C:\Users\thorn\Desktop\ox_pro\oxprogram\src\main\java\com\mycompany\oxprogram\Player.java
C:\Users\thorn\Desktop\ox_pro\oxprogram\src\main\java\com\mycompany\oxprogram\Game.java
C:\Users\thorn\Desktop\ox_pro\oxprogram\src\main\java\com\mycompany\oxprogram\PlayerService.java
C:\Users\thorn\Desktop\ox_pro\oxprogram\src\main\java\com\mycompany\oxprogram\TestReadFile.java
C:\Users\thorn\Desktop\ox_pro\oxprogram\src\main\java\com\mycompany\oxprogram\TestWhiteFile.java
C:\Users\thorn\Desktop\ox_pro\oxprogram\src\main\java\com\mycompany\oxprogram\Boardframe.java
C:\Users\thorn\Desktop\ox_pro\oxprogram\src\main\java\com\mycompany\oxprogram\MainProgram.java
C:\Users\thorn\Desktop\ox_pro\oxprogram\src\main\java\com\mycompany\oxprogram\Table.java
